{
  "name": "Lokix",
  "nationalPokedexNumber": 920,
  "primaryType": "bug",
  "secondaryType": "dark",
  "abilities": [
    "swarm",
    "h:tintedlens"
  ],
  "baseStats": {
    "hp": 71,
    "attack": 102,
    "defence": 78,
    "special_attack": 52,
    "special_defence": 55,
    "speed": 92
  },
  "catchRate": 30,
  "maleRatio": 0.5,
  "baseExperienceYield": 158,
  "baseFriendship": 0,
  "evYield": {
    "hp": 0,
    "attack": 2,
    "defence": 0,
    "special_attack": 0,
    "special_defence": 0,
    "speed": 0
  },
  "experienceGroup": "medium_fast",
  "eggCycles": 20,
  "eggGroups": [
    "bug"
  ],
  "moves": [
    "1:detect",
    "1:leer",
    "1:lowkick",
    "1:tackle",
	"1:lunge",
    "4:strugglebug",
    "6:astonish",
    "9:assurance",
    "11:doublekick",
    "14:screech",
    "18:endure",
    "22:bugbite",
    "28:feint",
    "32:agility",
    "36:throatchop",
    "40:suckerpunch",
    "44:firstimpression",
    "48:bounce",
    "53:axekick",
    "tm:aerialace",
    "tm:agility",
    "tm:brickbreak",
    "tm:bugbuzz",
    "tm:darkpulse",
    "tm:endure",
    "tm:facade",
    "tm:fling",
    "tm:gigaimpact",
    "tm:leechlife",
    "tm:lowkick",
    "tm:lowsweep",
    "tm:pounce",
    "tm:protect",
    "tm:raindance",
    "tm:rest",
    "tm:reversal",
    "tm:scaryface",
    "tm:sleeptalk",
    "tm:strugglebug",
    "tm:substitute",
    "tm:sunnyday",
    "tm:swordsdance",
    "tm:takedown",
    "tm:taunt",
    "tm:terablast",
    "tm:thief",
    "tm:trailblaze",
    "tm:uturn",
    "tm:xscissor"
  ],
  "labels": [
    "gen9"
  ],
  "aspects": [],
  "height": 10,
  "weight": 175,
  "preEvolution": "nymble",
  "evolutions": [],
  "cannotDynamax": false,
  "pokedex": [
    "cobblemon.species.lokix.desc"
  ]
}