{
  "name": "Shelmet",
  "nationalPokedexNumber": 616,
  "primaryType": "bug",
  "abilities": [
    "hydration",
    "shellarmor",
    "h:overcoat"
  ],
  "baseStats": {
    "hp": 50,
    "attack": 40,
    "defence": 85,
    "special_attack": 40,
    "special_defence": 65,
    "speed": 25
  },
  "catchRate": 200,
  "maleRatio": 0.5,
  "shoulderMountable": false,
  "baseExperienceYield": 61,
  "experienceGroup": "medium_fast",
  "eggCycles": 15,
  "eggGroups": [
    "bug"
  ],
  "moves": [
    "1:absorb",
    "1:leechlife",
    "1:protect",
    "4:acid",
    "8:bide",
    "8:curse",
    "12:megadrain",
    "16:strugglebug",
    "20:yawn",
    "24:acidarmor",
    "28:gigadrain",
    "32:guardswap",
    "36:bodyslam",
    "40:recover",
    "44:bugbuzz",
    "48:finalgambit",
    "egg:batonpass",
    "egg:doubleedge",
    "egg:encore",
    "egg:endure",
    "egg:feint",
    "egg:guardsplit",
    "egg:mindreader",
    "egg:mudslap",
    "egg:pursuit",
    "egg:spikes",
    "egg:toxicspikes",
    "tm:attract",
    "tm:batonpass",
    "tm:bodyslam",
    "tm:bugbuzz",
    "tm:confide",
    "tm:doubleteam",
    "tm:encore",
    "tm:endure",
    "tm:energyball",
    "tm:facade",
    "tm:frustration",
    "tm:gigadrain",
    "tm:guardswap",
    "tm:hiddenpower",
    "tm:infestation",
    "tm:leechlife",
    "tm:mudshot",
    "tm:protect",
    "tm:raindance",
    "tm:rest",
    "tm:return",
    "tm:round",
    "tm:secretpower",
    "tm:sleeptalk",
    "tm:sludgebomb",
    "tm:snore",
    "tm:spikes",
    "tm:strugglebug",
    "tm:substitute",
    "tm:swagger",
    "tm:toxic",
    "tm:toxicspikes",
    "tm:venoshock",
    "tutor:acid",
    "tutor:batonpass",
    "tutor:bodyslam",
    "tutor:bugbite",
    "tutor:bugbuzz",
    "tutor:encore",
    "tutor:gastroacid",
    "tutor:gigadrain",
    "tutor:megadrain",
    "tutor:protect",
    "tutor:signalbeam",
    "tutor:skittersmack",
    "tutor:sleeptalk",
    "tutor:snore",
    "tutor:strugglebug",
    "tutor:yawn"
  ],
  "labels": [
    "gen5"
  ],
  "pokedex": [
    "cobblemon.species.shelmet.desc"
  ],
  "evolutions": [
    {
      "id": "shelmet_accelgor",
      "variant": "trade",
      "result": "accelgor",
      "consumeHeldItem": false,
      "learnableMoves": [],
      "requirements": [],
      "requiredContext": "karrablast"
    }
  ],
  "baseScale": 1,
  "hitbox": {
    "width": 1,
    "height": 1,
    "fixed": false
  },
  "baseFriendship": 50,
  "evYield": {
    "hp": 0,
    "attack": 0,
    "defence": 1,
    "special_attack": 0,
    "special_defence": 0,
    "speed": 0
  },
  "height": 4,
  "weight": 77,
  "aspects": [],
  "cannotDynamax": false
}