{
  "baseYield": {
    "min": 2,
    "max": 3
  },
  "preferredBiomeTags": [
    "cobblemon:is_desert",
    "cobblemon:is_floral",
    "cobblemon:is_magical",
    "cobblemon:is_savanna",
    "cobblemon:is_spooky"
  ],
  "growthTime": {
    "min": 50,
    "max": 60
  },
  "refreshRate": {
    "min": 16,
    "max": 26
  },
  "favoriteMulches": [
    "loamy",
    "sandy"
  ],
  "growthFactors": [
    {
      "variant": "cobblemon:preferred_biome",
      "bonusYield": {
        "min": 1,
        "max": 2
      }
    }
  ],
  "randomizedGrowthPoints": true,
  "spawnConditions": [
    {
      "variant": "cobblemon:preferred_biome",
      "minGroveSize": 3,
      "maxGroveSize": 5
    }
  ],
  "growthPoints": [
    {
      "position": {
        "x": 8.0,
        "y": 5.25,
        "z": 8.0
      },
      "rotation": {
        "x": 52.5,
        "y": -2.5,
        "z": -7.5
      }
    },
    {
      "position": {
        "x": 8.0,
        "y": 5.0,
        "z": 8.0
      },
      "rotation": {
        "x": 37.5,
        "y": 67.5,
        "z": -20.0
      }
    },
    {
      "position": {
        "x": 8.0,
        "y": 5.25,
        "z": 8.0
      },
      "rotation": {
        "x": -132.5,
        "y": 30.0,
        "z": 170.0
      }
    },
    {
      "position": {
        "x": 8.0,
        "y": 5.0,
        "z": 8.0
      },
      "rotation": {
        "x": -130.0,
        "y": -32.5,
        "z": -167.5
      }
    },
    {
      "position": {
        "x": 8.0,
        "y": 4.75,
        "z": 8.0
      },
      "rotation": {
        "x": 47.5,
        "y": -65.0,
        "z": 12.5
      }
    }
  ],
  "mutations": {
    "cobblemon:sitrus_berry": "cobblemon:enigma_berry",
    "cobblemon:nomel_berry": "cobblemon:belue_berry"
  },
  "sproutShape": "short-sprout",
  "matureShape": "short-mature",
  "flavors": {
    "SWEET": 10,
    "SOUR": 15
  },
  "weight": 2.0,
  "tintIndexes": [],
  "flowerModel": "cobblemon:flower.geo",
  "flowerTexture": "cobblemon:textures/berries/flower.png",
  "fruitModel": "cobblemon:payapa_berry.geo",
  "fruitTexture": "cobblemon:textures/berries/payapa.png"
}