{
  "name": "Overqwil",
  "nationalPokedexNumber": 904,
  "primaryType": "dark",
  "secondaryType": "poison",
  "abilities": [
    "poisonpoint",
    "swiftswim",
    "h:intimidate"
  ],
  "baseStats": {
    "hp": 85,
    "attack": 115,
    "defence": 95,
    "special_attack": 65,
    "special_defence": 65,
    "speed": 85
  },
  "catchRate": 135,
  "maleRatio": 0.5,
  "shoulderMountable": false,
  "baseExperienceYield": 179,
  "baseFriendship": 0,
  "evYield": {
    "hp": 0,
    "attack": 2,
    "defence": 0,
    "special_attack": 0,
    "special_defence": 0,
    "speed": 0
  },
  "experienceGroup": "medium_fast",
  "eggCycles": 0,
  "eggGroups": [
    "water_2"
  ],
  "moves": [
    "1:poisonsting",
    "1:tackle",
    "4:harden",
    "8:bite",
    "12:fellstinger",
    "16:minimize",
    "20:spikes",
    "24:brine",
    "28:barbbarrage",
    "32:pinmissile",
    "36:toxicspikes",
    "40:spitup",
    "40:stockpile",
    "44:toxic",
    "48:crunch",
    "52:acupressure",
    "56:destinybond",
    "tm:agility",
    "tm:blizzard",
    "tm:chillingwater",
    "tm:crunch",
    "tm:darkpulse",
    "tm:endure",
    "tm:facade",
    "tm:gigaimpact",
    "tm:gunkshot",
    "tm:hydropump",
    "tm:hyperbeam",
    "tm:icebeam",
    "tm:icywind",
    "tm:liquidation",
    "tm:mudshot",
    "tm:poisonjab",
    "tm:poisontail",
    "tm:protect",
    "tm:raindance",
    "tm:rest",
    "tm:reversal",
    "tm:scaryface",
    "tm:shadowball",
    "tm:sleeptalk",
    "tm:sludgebomb",
    "tm:smartstrike",
    "tm:spikes",
    "tm:substitute",
    "tm:surf",
    "tm:swordsdance",
    "tm:takedown",
    "tm:taunt",
    "tm:terablast",
    "tm:toxicspikes",
    "tm:venoshock",
    "tm:waterfall"
  ],
  "labels": [
    "gen8"
  ],
  "pokedex": [
    "cobblemon.species.overqwil.desc"
  ],
  "height": 5,
  "weight": 39,
  "preEvolution": "qwilfish form=hisui",
  "evolutions": [],
  "aspects": [],
  "cannotDynamax": false
}
